{
    "content": [
        {
            "id": 1,
            "cedulaRecibe": "4-183-657",
            "cedulaEntrega": "8-859-1553",
            "fecha": "2018-02-02 11:53:19.99",
            "entregado": "8-925-15",
            "pdf": "1-2021-12-22.pdf",
            "personaEntrega": {
                "id": 1,
                "cedula": "8-859-1553",
                "nombre": "BRIAN STEFANO",
                "apellido": "PAZ MEDINA"
            },
            "personaRecibe": {
                "id": 2,
                "cedula": "4-183-657",
                "nombre": "ELBIA",
                "apellido": "MUÑOZ SERRANO"
            },
            "personaEntregado": {
                "id": 181,
                "cedula": "8-925-15",
                "nombre": "JAHIR ALEXIS",
                "apellido": "CALDERON FERRERA"
            }
        },
        {
            "id": 2,
            "cedulaRecibe": "8-782-2260",
            "cedulaEntrega": "8-859-1553",
            "fecha": "2018-02-28 14:58:10.7",
            "entregado": "8-925-15",
            "pdf": null,
            "personaEntrega": {
                "id": 1,
                "cedula": "8-859-1553",
                "nombre": "BRIAN STEFANO",
                "apellido": "PAZ MEDINA"
            },
            "personaRecibe": {
                "id": 5,
                "cedula": "8-782-2260",
                "nombre": "IRMA ESTELA",
                "apellido": "VERGARA ARROCHA"
            },
            "personaEntregado": {
                "id": 181,
                "cedula": "8-925-15",
                "nombre": "JAHIR ALEXIS",
                "apellido": "CALDERON FERRERA"
            }
        },
        {
            "id": 3,
            "cedulaRecibe": "8-859-1553",
            "cedulaEntrega": "8-859-1553",
            "fecha": "2018-03-13 09:42:18.01",
            "entregado": "8-925-15",
            "pdf": null,
            "personaEntrega": {
                "id": 1,
                "cedula": "8-859-1553",
                "nombre": "BRIAN STEFANO",
                "apellido": "PAZ MEDINA"
            },
            "personaRecibe": {
                "id": 1,
                "cedula": "8-859-1553",
                "nombre": "BRIAN STEFANO",
                "apellido": "PAZ MEDINA"
            },
            "personaEntregado": {
                "id": 181,
                "cedula": "8-925-15",
                "nombre": "JAHIR ALEXIS",
                "apellido": "CALDERON FERRERA"
            }
        },
        {
            "id": 4,
            "cedulaRecibe": "4-183-657",
            "cedulaEntrega": "8-859-1553",
            "fecha": "2018-03-13 09:45:52.313",
            "entregado": "8-925-15",
            "pdf": null,
            "personaEntrega": {
                "id": 1,
                "cedula": "8-859-1553",
                "nombre": "BRIAN STEFANO",
                "apellido": "PAZ MEDINA"
            },
            "personaRecibe": {
                "id": 2,
                "cedula": "4-183-657",
                "nombre": "ELBIA",
                "apellido": "MUÑOZ SERRANO"
            },
            "personaEntregado": {
                "id": 181,
                "cedula": "8-925-15",
                "nombre": "JAHIR ALEXIS",
                "apellido": "CALDERON FERRERA"
            }
        },
        {
            "id": 5,
            "cedulaRecibe": "8-894-321",
            "cedulaEntrega": "8-859-1553",
            "fecha": "2018-03-21 09:21:04.17",
            "entregado": "8-925-15",
            "pdf": null,
            "personaEntrega": {
                "id": 1,
                "cedula": "8-859-1553",
                "nombre": "BRIAN STEFANO",
                "apellido": "PAZ MEDINA"
            },
            "personaRecibe": {
                "id": 4,
                "cedula": "8-894-321",
                "nombre": "HELEN DARLYN",
                "apellido": "QUINTERO GONZALEZ"
            },
            "personaEntregado": {
                "id": 181,
                "cedula": "8-925-15",
                "nombre": "JAHIR ALEXIS",
                "apellido": "CALDERON FERRERA"
            }
        },
        {
            "id": 6,
            "cedulaRecibe": "8-222-2678",
            "cedulaEntrega": "8-859-1553",
            "fecha": "2018-03-21 09:23:09.313",
            "entregado": "8-925-15",
            "pdf": null,
            "personaEntrega": {
                "id": 1,
                "cedula": "8-859-1553",
                "nombre": "BRIAN STEFANO",
                "apellido": "PAZ MEDINA"
            },
            "personaRecibe": {
                "id": 6,
                "cedula": "8-222-2678",
                "nombre": "MARITZA ANA",
                "apellido": "CARRERA ORTEGA"
            },
            "personaEntregado": {
                "id": 181,
                "cedula": "8-925-15",
                "nombre": "JAHIR ALEXIS",
                "apellido": "CALDERON FERRERA"
            }
        },
        {
            "id": 7,
            "cedulaRecibe": "8-859-1553",
            "cedulaEntrega": "8-859-1553",
            "fecha": "2018-03-21 09:25:33.07",
            "entregado": "8-925-15",
            "pdf": null,
            "personaEntrega": {
                "id": 1,
                "cedula": "8-859-1553",
                "nombre": "BRIAN STEFANO",
                "apellido": "PAZ MEDINA"
            },
            "personaRecibe": {
                "id": 1,
                "cedula": "8-859-1553",
                "nombre": "BRIAN STEFANO",
                "apellido": "PAZ MEDINA"
            },
            "personaEntregado": {
                "id": 181,
                "cedula": "8-925-15",
                "nombre": "JAHIR ALEXIS",
                "apellido": "CALDERON FERRERA"
            }
        },
        {
            "id": 8,
            "cedulaRecibe": "8-782-2260",
            "cedulaEntrega": "8-859-1553",
            "fecha": "2018-03-21 10:18:15.57",
            "entregado": "8-925-15",
            "pdf": null,
            "personaEntrega": {
                "id": 1,
                "cedula": "8-859-1553",
                "nombre": "BRIAN STEFANO",
                "apellido": "PAZ MEDINA"
            },
            "personaRecibe": {
                "id": 5,
                "cedula": "8-782-2260",
                "nombre": "IRMA ESTELA",
                "apellido": "VERGARA ARROCHA"
            },
            "personaEntregado": {
                "id": 181,
                "cedula": "8-925-15",
                "nombre": "JAHIR ALEXIS",
                "apellido": "CALDERON FERRERA"
            }
        },
        {
            "id": 9,
            "cedulaRecibe": "8-759-612",
            "cedulaEntrega": "8-859-1553",
            "fecha": "2018-03-21 11:26:47.2",
            "entregado": "8-925-15",
            "pdf": null,
            "personaEntrega": {
                "id": 1,
                "cedula": "8-859-1553",
                "nombre": "BRIAN STEFANO",
                "apellido": "PAZ MEDINA"
            },
            "personaRecibe": {
                "id": 7,
                "cedula": "8-759-612",
                "nombre": "JOEL ARIEL",
                "apellido": "ROBINSON DUGGON"
            },
            "personaEntregado": {
                "id": 181,
                "cedula": "8-925-15",
                "nombre": "JAHIR ALEXIS",
                "apellido": "CALDERON FERRERA"
            }
        },
        {
            "id": 10,
            "cedulaRecibe": "8-712-27",
            "cedulaEntrega": "8-859-1553",
            "fecha": "2018-03-21 11:30:06.667",
            "entregado": "8-925-15",
            "pdf": null,
            "personaEntrega": {
                "id": 1,
                "cedula": "8-859-1553",
                "nombre": "BRIAN STEFANO",
                "apellido": "PAZ MEDINA"
            },
            "personaRecibe": {
                "id": 8,
                "cedula": "8-712-27",
                "nombre": "JOSE MANUEL",
                "apellido": "LEE MOLLEDAS"
            },
            "personaEntregado": {
                "id": 181,
                "cedula": "8-925-15",
                "nombre": "JAHIR ALEXIS",
                "apellido": "CALDERON FERRERA"
            }
        }
    ],
    "pageable": {
        "sort": {
            "sorted": true,
            "unsorted": false,
            "empty": false
        },
        "offset": 0,
        "pageNumber": 0,
        "pageSize": 10,
        "paged": true,
        "unpaged": false
    },
    "last": false,
    "totalPages": 43,
    "totalElements": 422,
    "number": 20,
    "sort": {
        "sorted": true,
        "unsorted": false,
        "empty": false
    },
    "size": 10,
    "first": true,
    "numberOfElements": 10,
    "empty": false
}